[gd_scene load_steps=3 format=2]

[ext_resource path="res://src/Environnement/MSH_Ground_Craftzone.glb" type="PackedScene" id=1]
[ext_resource path="res://src/Environnement/Materials/MAT_Ground_Craftzone.tres" type="Material" id=2]

[node name="MSH_Ground_Craftzone" instance=ExtResource( 1 )]

[node name="Dalle_low" parent="." index="0"]
transform = Transform( 1, 0, 0, 0, 1, 0, 0, 0, 1, -0.413936, 0.315905, 0.0687368 )
use_in_baked_light = true
material/0 = ExtResource( 2 )
